<svg xmlns="http://www.w3.org/2000/svg" version="1.1" width="256" height="256" preserveAspectRatio="xMidYMid slice">
	<defs>
		<!-- <filter id="tile" x="0" y="0" width="100%" height="100%">
			<feTile in="SourceGraphic" x="0" y="0" width="2" height="2" />
			<feTile />
		</filter> -->
		<pattern id="bg" viewBox="0 0 2 2" width="100%" height="100%" preserveAspectRatio="xMidYMid slice">
			<rect x="0" y="0" width="1" height="1" fill="black" />
			<rect x="1" y="0" width="1" height="1" fill="white" />
			<rect x="0" y="1" width="1" height="1" fill="white" />
			<rect x="1" y="1" width="1" height="1" fill="black" />
		</pattern>
		<!-- <pattern id="bg" viewBox="0 0 16 16" width="100%" height="100%" preserveAspectRatio="xMidYMid slice">
			<rect x="0" y="0" width="16" height="1" fill="black" />
			<rect x="0" y="15" width="16" height="1" fill="black" />
			<rect x="0" y="1" width="1" height="14" fill="black" />
			<rect x="15" y="1" width="1" height="14" fill="black" />
			<rect x="1" y="1" width="14" height="14" fill="white" />
		</pattern> -->
	</defs>
	<!-- <symbol id="bgPattern" width="64" height="64" viewBox="0 0 2 2"> -->
	<!-- <symbol id="bgPattern" width="64" height="64">
		<rect x="0" y="0" width="1" height="1" fill="black" />
		<rect x="1" y="0" width="1" height="1" fill="white" />
		<rect x="0" y="1" width="1" height="1" fill="white" />
		<rect x="1" y="1" width="1" height="1" fill="black" />
	</symbol> -->
	<!-- <use href="#svgImgBgPattern" x="0" y="0" height="100%" width="100%" style="filter:url(#tile);" /> -->
	<!-- <use href="#bgPattern" x="0" y="0" height="100%" width="100%" style="filter:url(#tile);" /> -->
	<!-- <g x="0" y="0" height="100%" width="100%" style="filter:url(#tile);">
		<rect x="0" y="0" width="1" height="1" fill="black" />
		<rect x="1" y="0" width="1" height="1" fill="white" />
		<rect x="0" y="1" width="1" height="1" fill="white" />
		<rect x="1" y="1" width="1" height="1" fill="black" />
	</g> -->
	<rect x="0" y="0" height="100%" width="100%" fill="url(#bg)" opacity="0.125" />
</svg>
